{
    "response": {
        "status": "ok",
        "userTier": "developer",
        "total": 51491,
        "startIndex": 1,
        "pageSize": 10,
        "currentPage": 1,
        "pages": 5150,
        "orderBy": "newest",
        "results": [
            {
                "id": "technology/askjack/2018/aug/30/whats-the-best-laptop-for-university-under-600",
                "type": "article",
                "sectionId": "technology",
                "sectionName": "Technology",
                "webPublicationDate": "2018-08-30T11:10:12Z",
                "webTitle": "What's the best laptop for university under £600?",
                "webUrl": "https://www.theguardian.com/technology/askjack/2018/aug/30/whats-the-best-laptop-for-university-under-600",
                "apiUrl": "https://content.guardianapis.com/technology/askjack/2018/aug/30/whats-the-best-laptop-for-university-under-600",
                "isHosted": false,
                "pillarId": "pillar/news",
                "pillarName": "News"
            },
            {
                "id": "technology/2018/aug/30/google-home-max-review-google-assistant-smart-speaker",
                "type": "article",
                "sectionId": "technology",
                "sectionName": "Technology",
                "webPublicationDate": "2018-08-30T08:00:50Z",
                "webTitle": "Google Home Max review: bigger and smarter sound",
                "webUrl": "https://www.theguardian.com/technology/2018/aug/30/google-home-max-review-google-assistant-smart-speaker",
                "apiUrl": "https://content.guardianapis.com/technology/2018/aug/30/google-home-max-review-google-assistant-smart-speaker",
                "isHosted": false,
                "pillarId": "pillar/news",
                "pillarName": "News"
            },
            {
                "id": "technology/2018/aug/29/coding-algorithms-frankenalgos-program-danger",
                "type": "article",
                "sectionId": "technology",
                "sectionName": "Technology",
                "webPublicationDate": "2018-08-30T05:00:48Z",
                "webTitle": "Franken-algorithms: the deadly consequences of unpredictable code",
                "webUrl": "https://www.theguardian.com/technology/2018/aug/29/coding-algorithms-frankenalgos-program-danger",
                "apiUrl": "https://content.guardianapis.com/technology/2018/aug/29/coding-algorithms-frankenalgos-program-danger",
                "isHosted": false,
                "pillarId": "pillar/news",
                "pillarName": "News"
            },
            {
                "id": "technology/2018/aug/30/dyson-expand-hullavington-wiltshire-facility-boost-electric-car-tests",
                "type": "article",
                "sectionId": "technology",
                "sectionName": "Technology",
                "webPublicationDate": "2018-08-29T23:01:40Z",
                "webTitle": "Dyson to expand Wiltshire facility to boost electric-car tests",
                "webUrl": "https://www.theguardian.com/technology/2018/aug/30/dyson-expand-hullavington-wiltshire-facility-boost-electric-car-tests",
                "apiUrl": "https://content.guardianapis.com/technology/2018/aug/30/dyson-expand-hullavington-wiltshire-facility-boost-electric-car-tests",
                "isHosted": false,
                "pillarId": "pillar/news",
                "pillarName": "News"
            },
            {
                "id": "technology/2018/aug/29/twitch-livestream-what-is-it-florida-shooting-madden-tournament",
                "type": "article",
                "sectionId": "technology",
                "sectionName": "Technology",
                "webPublicationDate": "2018-08-29T17:54:36Z",
                "webTitle": "Twitch: what is the platform that livestreamed the Florida shooting?",
                "webUrl": "https://www.theguardian.com/technology/2018/aug/29/twitch-livestream-what-is-it-florida-shooting-madden-tournament",
                "apiUrl": "https://content.guardianapis.com/technology/2018/aug/29/twitch-livestream-what-is-it-florida-shooting-madden-tournament",
                "isHosted": false,
                "pillarId": "pillar/news",
                "pillarName": "News"
            },
            {
                "id": "technology/2018/aug/29/elon-musk-doubles-down-on-pedo-claims-against-uk-cave-diver",
                "type": "article",
                "sectionId": "technology",
                "sectionName": "Technology",
                "webPublicationDate": "2018-08-29T15:28:40Z",
                "webTitle": "Elon Musk doubles down on 'pedo' claims against UK cave diver",
                "webUrl": "https://www.theguardian.com/technology/2018/aug/29/elon-musk-doubles-down-on-pedo-claims-against-uk-cave-diver",
                "apiUrl": "https://content.guardianapis.com/technology/2018/aug/29/elon-musk-doubles-down-on-pedo-claims-against-uk-cave-diver",
                "isHosted": false,
                "pillarId": "pillar/news",
                "pillarName": "News"
            },
            {
                "id": "technology/2018/aug/29/natural-cycles-app-highly-accurate-contraceptive-claim-misled-consumers",
                "type": "article",
                "sectionId": "technology",
                "sectionName": "Technology",
                "webPublicationDate": "2018-08-28T23:01:25Z",
                "webTitle": "Natural Cycles app: 'highly accurate contraceptive' claim misled consumers",
                "webUrl": "https://www.theguardian.com/technology/2018/aug/29/natural-cycles-app-highly-accurate-contraceptive-claim-misled-consumers",
                "apiUrl": "https://content.guardianapis.com/technology/2018/aug/29/natural-cycles-app-highly-accurate-contraceptive-claim-misled-consumers",
                "isHosted": false,
                "pillarId": "pillar/news",
                "pillarName": "News"
            },
            {
                "id": "technology/2018/aug/28/digital-shackles-the-unexpected-cruelty-of-ankle-monitors",
                "type": "article",
                "sectionId": "technology",
                "sectionName": "Technology",
                "webPublicationDate": "2018-08-28T07:01:04Z",
                "webTitle": "‘Digital shackles’: the unexpected cruelty of ankle monitors",
                "webUrl": "https://www.theguardian.com/technology/2018/aug/28/digital-shackles-the-unexpected-cruelty-of-ankle-monitors",
                "apiUrl": "https://content.guardianapis.com/technology/2018/aug/28/digital-shackles-the-unexpected-cruelty-of-ankle-monitors",
                "isHosted": false,
                "pillarId": "pillar/news",
                "pillarName": "News"
            },
            {
                "id": "technology/2018/aug/28/driverless-taxi-debuts-in-tokyo-in-world-first-trial-ahead-of-olympics",
                "type": "article",
                "sectionId": "technology",
                "sectionName": "Technology",
                "webPublicationDate": "2018-08-28T05:23:30Z",
                "webTitle": "Driverless taxi debuts in Tokyo in 'world first' trial ahead of Olympics",
                "webUrl": "https://www.theguardian.com/technology/2018/aug/28/driverless-taxi-debuts-in-tokyo-in-world-first-trial-ahead-of-olympics",
                "apiUrl": "https://content.guardianapis.com/technology/2018/aug/28/driverless-taxi-debuts-in-tokyo-in-world-first-trial-ahead-of-olympics",
                "isHosted": false,
                "pillarId": "pillar/news",
                "pillarName": "News"
            },
            {
                "id": "technology/shortcuts/2018/aug/27/re-attaching-for-convenience-passive-aggressive-email-phrases-poll",
                "type": "article",
                "sectionId": "technology",
                "sectionName": "Technology",
                "webPublicationDate": "2018-08-27T13:03:26Z",
                "webTitle": "‘Reattaching for convenience’: nine passive-aggressive email phrases that must end now",
                "webUrl": "https://www.theguardian.com/technology/shortcuts/2018/aug/27/re-attaching-for-convenience-passive-aggressive-email-phrases-poll",
                "apiUrl": "https://content.guardianapis.com/technology/shortcuts/2018/aug/27/re-attaching-for-convenience-passive-aggressive-email-phrases-poll",
                "isHosted": false,
                "pillarId": "pillar/news",
                "pillarName": "News"
            }
        ]
    }
}
